﻿{
  "Database": [
    {
      "Provider": "postgresql", // sqlserver | inmemory | postgresql
      "DbContext": "Basket_DbContext",
      "Host": "107.155.65.68",
      "Port": "2432",
      "DatabaseName": "HelloBook_Basket",
      "DatabaseUsername": "postgres",
      "DatabasePassword": "Mrt.12123"
    }
  ],

  "Cryptography": [
    {
      "Provider": "aes",
      "Key": "E546C8DF278CD5931069B522E695DGTR"
    }
  ],

  "Jwt": {
    "Secret": "BVcdrftgyhjvgcfxdrTFYGUHIRXfcgvh76eudgHUI*ytFGturIGhj^&%^#4758769youGHGJDy7850769*PYOULGKHJGHJFsrer6",
    "Issuer": "Issuer",
    "ExpireInSeconds": 0,
    "ExpireInMinutes": 2,
    "ExpireInHours": 1
  }

}